…
scale_colour_discrete = scale_colour_viridis_d
scale_fill_discrete = scale_fill_viridis_d
```

## Problem 1

``` r
data("instacart")
instacart %>% 
  janitor::clean_names()
```

    ## # A tibble: 1,384,617 x 15
    ##    order_id product_id add_to_cart_order reordered user_id eval_set order_number
    ##       <int>      <int>             <int>     <int>   <int> <chr>           <int>
    ##  1        1      49302                 1         1  112108 train               4
    ##  2        1      11109                 2         1  112108 train               4
    ##  3        1      10246                 3         0  112108 train               4
    ##  4        1      49683                 4         0  112108 train               4
    ##  5        1      43633                 5         1  112108 train               4
    ##  6        1      13176                 6         0  112108 train               4
    ##  7        1      47209                 7         0  112108 train               4
    ##  8        1      22035                 8         1  112108 train               4
    ##  9       36      39612                 1         0   79431 train              23
    ## 10       36      19660                 2         1   79431 train              23
    ## # … with 1,384,607 more rows, and 8 more variables: order_dow <int>,
    ## #   order_hour_of_day <int>, days_since_prior_order <int>, product_name <chr>,
    ## #   aisle_id <int>, department_id <int>, aisle <chr>, department <chr>

``` r
instacart %>% 
  distinct(aisle) 
```

    ## # A tibble: 134 x 1
    ##    aisle                        
    ##    <chr>                        
    ##  1 yogurt                       
    ##  2 other creams cheeses         
    ##  3 fresh vegetables             
    ##  4 canned meat seafood          
    ##  5 fresh fruits                 
    ##  6 packaged cheese              
    ##  7 specialty cheeses            
    ##  8 water seltzer sparkling water
    ##  9 cream                        
    ## 10 packaged vegetables fruits   
    ## # … with 124 more rows
…
brfss
```

    ## # A tibble: 10,625 x 24
    ##     year state location_descrip… class   topic  question    response sample_size
    ##    <int> <chr> <chr>             <chr>   <chr>  <chr>       <fct>          <int>
    ##  1  2010 AL    AL - Jefferson C… Health… Overa… How is you… Excelle…          94
    ##  2  2010 AL    AL - Jefferson C… Health… Overa… How is you… Very go…         148
    ##  3  2010 AL    AL - Jefferson C… Health… Overa… How is you… Good             208
    ##  4  2010 AL    AL - Jefferson C… Health… Overa… How is you… Fair             107
    ##  5  2010 AL    AL - Jefferson C… Health… Overa… How is you… Poor              45
    ##  6  2010 AL    AL - Mobile Coun… Health… Overa… How is you… Excelle…          91
    ##  7  2010 AL    AL - Mobile Coun… Health… Overa… How is you… Very go…         177
    ##  8  2010 AL    AL - Mobile Coun… Health… Overa… How is you… Good             224
    ##  9  2010 AL    AL - Mobile Coun… Health… Overa… How is you… Fair             120
    ## 10  2010 AL    AL - Mobile Coun… Health… Overa… How is you… Poor              66
    ## # … with 10,615 more rows, and 16 more variables: data_value <dbl>,
    ## #   confidence_limit_low <dbl>, confidence_limit_high <dbl>,
    ## #   display_order <int>, data_value_unit <chr>, data_value_type <chr>,
    ## #   data_value_footnote_symbol <chr>, data_value_footnote <chr>,
    ## #   data_source <chr>, class_id <chr>, topic_id <chr>, location_id <chr>,
    ## #   question_id <chr>, respid <chr>, geo_location <chr>, response_rank <dbl>
…
``` r
excellent_df = brfss %>% 
  filter(response == "Excellent") %>% 
  group_by(state, year) %>% 
  summarize(mean_data_value = mean(data_value, na.rm = TRUE))
```

    ## `summarise()` has grouped output by 'state'. You can override using the `.groups` argument.

``` r
excellent_df
```

    ## # A tibble: 443 x 3
    ## # Groups:   state [51]
    ##    state  year mean_data_value
    ##    <chr> <int>           <dbl>
    ##  1 AK     2002            27.9
    ##  2 AK     2003            24.8
    ##  3 AK     2004            23.0
    ##  4 AK     2005            23.8
    ##  5 AK     2007            23.5
    ##  6 AK     2008            20.6
    ##  7 AK     2009            23.2
    ##  8 AL     2002            18.5
    ##  9 AL     2003            19.5
    ## 10 AL     2004            20  
    ## # … with 433 more rows
…
